{
    "/js/app.js": "/js/app.js?id=07defc3ffc49121b1b3240578df4206b",
    "/css/editor-style.css": "/css/editor-style.css?id=91a47cf3d52ae87e6604437493da050a",
    "/css/app.css": "/css/app.css?id=493c9e4e28b9a9d53e9030c8fd1a1dd1"
}
