{
    "name": "acf/call-to-action",
    "title": "Call To Action",
    "description": "A Call To Action block.",
    "style": [
        "file:./call-to-action.css"
    ],
    "category": "formatting",
    "icon": "smiley",
    "keywords": [
        "call-to-action"
    ],
    "acf": {
        "mode": "preview",
        "renderTemplate": "call-to-action.php"
    }
}